{
  "project_info": {
    "project_number": "255248585308",
    "firebase_url": "https://com-app-adar-group.firebaseio.com",
    "project_id": "com-app-adar-group",
    "storage_bucket": "com-app-adar-group.appspot.com"
  },
  "client": [
    {
      "client_info": {
        "mobilesdk_app_id": "1:255248585308:android:88996c7b0f1f07c9",
        "android_client_info": {
          "package_name": "com.app.adar.group"
        }
      },
      "oauth_client": [
        {
          "client_id": "255248585308-c1s6q80n4mvfim10navnjale2a87vqfo.apps.googleusercontent.com",
          "client_type": 3
        }
      ],
      "api_key": [
        {
          "current_key": "AIzaSyBiQf9XfROp0GqZghKO8p4_Fuh1ZQ3g7tA"
        }
      ],
      "services": {
        "analytics_service": {
          "status": 1
        },
        "appinvite_service": {
          "status": 1,
          "other_platform_oauth_client": []
        },
        "ads_service": {
          "status": 2
        }
      }
    }
  ],
  "configuration_version": "1"
}