{
  "app": {
    "configs": {
      "collectionToken": "5c4f91805c424c84",
      "clientId": "mobile_app",
      "clientSecret": "H6h27xGDPFbtaqDELFzL4a1lre63trdh",
      "recognized": "assets/imgs/white.jpg",
      "endpoint": "http://adar.com/server",
      "accessTokenService": "/api/v1/oauth/access-token",
      "settingsEndPoint": "/api/v1/settings/",
      "walkthroughEndPoint": "/api/v1/walkthrough/",
      "grant_type": "client_credentials",
      "scope": "create_participant participant participants checkpoint checkpoints update_participant walkthrough walkthroughs"
    }
  }
}
